<?xml version="1.0" encoding="utf-8"?>
<!-- Generator: Adobe Illustrator 23.0.0, SVG Export Plug-In . SVG Version: 6.00 Build 0)  -->
<svg version="1.1" id="Capa_1" xmlns="http://www.w3.org/2000/svg" xmlns:xlink="http://www.w3.org/1999/xlink" x="0px" y="0px"
	 viewBox="0 0 512 512" style="enable-background:new 0 0 512 512;" xml:space="preserve">
<style type="text/css">
	.st0{fill:#FF9518;}
	.st1{fill:#293D7C;}
	.st2{fill:#1A2B63;}
	.st3{fill:#E26693;}
	.st4{fill:#FFAF10;}
	.st5{fill:#37C47A;}
	.st6{fill:#AEC1ED;}
	.st7{fill:#85A0DD;}
	.st8{fill:#D9EAFC;}
	.st9{fill:#AE2070;}
	.st10{fill:#D3208B;}
	.st11{fill:#445EA0;}
	.st12{fill:#FFFFFF;}
</style>
<circle class="st0" cx="256" cy="256" r="245"/>
<path class="st1" d="M246.5,67.6H60.6c-5.5,0-10,4.5-10,10v49.8h195.8V67.6z"/>
<path class="st2" d="M80.5,67.6H60.6c-5.5,0-10,4.5-10,10v49.8h19.8V77.6C70.5,72.1,75,67.6,80.5,67.6z"/>
<path class="st3" d="M84.4,107.4c-2.2,0-4.4-0.9-5.9-2.5c-1.6-1.6-2.5-3.7-2.5-5.9c0-2.2,0.9-4.4,2.5-5.9c1.6-1.6,3.7-2.5,5.9-2.5
	c2.2,0,4.4,0.9,5.9,2.5c1.6,1.6,2.5,3.7,2.5,5.9c0,2.2-0.9,4.4-2.5,5.9C88.8,106.5,86.6,107.4,84.4,107.4z"/>
<path class="st4" d="M112,107.4c-2.2,0-4.4-0.9-5.9-2.5c-1.6-1.6-2.5-3.7-2.5-5.9c0-2.2,0.9-4.4,2.5-5.9c1.6-1.6,3.7-2.5,5.9-2.5
	c2.2,0,4.4,0.9,5.9,2.5c1.6,1.6,2.5,3.7,2.5,5.9c0,2.2-0.9,4.4-2.5,5.9C116.3,106.5,114.2,107.4,112,107.4z"/>
<path class="st5" d="M139.5,107.4c-2.2,0-4.4-0.9-5.9-2.5c-1.6-1.6-2.5-3.7-2.5-5.9c0-2.2,0.9-4.4,2.5-5.9c1.6-1.6,3.7-2.5,5.9-2.5
	c2.2,0,4.4,0.9,5.9,2.5c1.6,1.6,2.5,3.7,2.5,5.9c0,2.2-0.9,4.4-2.5,5.9C143.9,106.5,141.7,107.4,139.5,107.4z"/>
<path class="st6" d="M251.5,169.7c-2.8,0-5-2.3-5-5v-37.2H50.7v262.3c13.4,20.6,29.9,39,48.7,54.7h313.3
	c18.8-15.7,35.3-34.1,48.7-54.7v-220H251.5z"/>
<path class="st7" d="M70.5,383.2V127.4H50.7v262.3c0.1,0.2,0.3,0.4,0.4,0.6L70.5,383.2z"/>
<path class="st8" d="M251.5,169.7c-2.8,0-5-2.3-5-5v-12.3H80.6c-2.8,0-5,2.3-5,5v224l43.2-15.9c0.4-0.2,0.8-0.2,1.2-0.2
	s0.5,0.1,0.6,0.2c0.2,0.2,0.2,0.8-0.1,1.7l-19.2,52.3h330.2c2.8,0,5-2.3,5-5V169.7L251.5,169.7L251.5,169.7z"/>
<path class="st9" d="M245.5,205c0,3.5,2,6.4,4.5,6.4h214.1c2.4,0,4.5-2.9,4.5-6.4V32.4c0-3.5-2-6.4-4.5-6.4H250
	c-2.4,0-4.5,2.9-4.5,6.4V205z"/>
<path class="st10" d="M265.3,205.7V31c0-2.8,2.3-5,5-5h-19.8c-2.8,0-5,2.3-5,5v174.7c0,2.8,2.3,5,5,5h19.8
	C267.6,210.7,265.3,208.4,265.3,205.7z"/>
<g>
	<path class="st11" d="M405.6,205.5H232c-4.1,0-7.5-3.4-7.5-7.5s3.4-7.5,7.5-7.5h173.5c4.1,0,7.5,3.4,7.5,7.5
		S409.7,205.5,405.6,205.5z"/>
	<path class="st11" d="M405.6,231H232c-4.1,0-7.5-3.4-7.5-7.5s3.4-7.5,7.5-7.5h173.5c4.1,0,7.5,3.4,7.5,7.5S409.7,231,405.6,231z"/>
	<path class="st11" d="M348.8,256.5H232c-4.1,0-7.5-3.4-7.5-7.5s3.4-7.5,7.5-7.5h116.8c4.1,0,7.5,3.4,7.5,7.5
		C356.3,253.1,353,256.5,348.8,256.5z"/>
	<path class="st11" d="M240.5,386H113.5l-5.5,15h132.5c4.1,0,7.5-3.4,7.5-7.5S244.6,386,240.5,386z"/>
	<path class="st11" d="M240.5,362H107c-4.1,0-7.5,3.4-7.5,7.5c0,1,0.2,2,0.6,2.9l18.7-6.9c0.4-0.2,0.8-0.2,1.2-0.2s0.5,0.1,0.6,0.2
		c0.2,0.2,0.2,0.8-0.1,1.7l-3.6,9.8h123.6c4.1,0,7.5-3.4,7.5-7.5S244.6,362,240.5,362z"/>
	<path class="st11" d="M240.5,353H107c-4.1,0-7.5-3.4-7.5-7.5s3.4-7.5,7.5-7.5h133.5c4.1,0,7.5,3.4,7.5,7.5S244.6,353,240.5,353z"/>
	<path class="st11" d="M405,401H271.5c-4.1,0-7.5-3.4-7.5-7.5s3.4-7.5,7.5-7.5H405c4.1,0,7.5,3.4,7.5,7.5S409.2,401,405,401z"/>
	<path class="st11" d="M405,377H271.5c-4.1,0-7.5-3.4-7.5-7.5s3.4-7.5,7.5-7.5H405c4.1,0,7.5,3.4,7.5,7.5S409.2,377,405,377z"/>
	<path class="st11" d="M405,353H271.5c-4.1,0-7.5-3.4-7.5-7.5s3.4-7.5,7.5-7.5H405c4.1,0,7.5,3.4,7.5,7.5S409.2,353,405,353z"/>
</g>
<path class="st1" d="M121.4,367.5c0.9-2.6-0.4-3.9-3-3L6,405.9c-2.6,0.9-3.1,3.3-1.2,5.3L26.7,433c1.9,1.9,1.9,5.1,0,7.1L1.5,465.4
	c-1.9,1.9-1.9,5.1,0,7.1l12,12c1.9,1.9,5.1,1.9,7.1,0l25.3-25.3c1.9-1.9,5.1-1.9,7.1,0l21.9,21.9c1.9,1.9,4.3,1.4,5.3-1.2
	L121.4,367.5z"/>
<path class="st2" d="M15.8,422.1l98.9-36.3l6.7-18.2c0.9-2.6-0.4-3.9-3-3L6,405.9c-2.6,0.9-3.1,3.3-1.2,5.3L15.8,422.1z"/>
<g>
	<path class="st11" d="M205,262c0,2.8-2.3,5-5,5H100c-2.8,0-5-2.3-5-5v-76c0-2.8,2.3-5,5-5h100c2.8,0,5,2.3,5,5V262z"/>
	<path class="st11" d="M415.2,319.5c0,2.8-2.3,5-5,5H101.8c-2.8,0-5-2.3-5-5V284c0-2.8,2.3-5,5-5h308.5c2.8,0,5,2.3,5,5V319.5z"/>
</g>
<g>
	<path class="st1" d="M114.8,262v-76c0-2.8,2.3-5,5-5H100c-2.8,0-5,2.3-5,5v76c0,2.8,2.3,5,5,5h19.8
		C117.1,267,114.8,264.8,114.8,262z"/>
	<path class="st1" d="M116.6,319.5V284c0-2.8,2.3-5,5-5h-19.8c-2.8,0-5,2.3-5,5v35.5c0,2.8,2.3,5,5,5h19.8
		C118.8,324.5,116.6,322.2,116.6,319.5z"/>
</g>
<g>
	<g id="Layer_1-2">
		<path class="st12" d="M313.6,184.3c-0.5-0.3-1.1-0.5-1.7-0.4c-0.5,0-1.1,0.1-1.5,0.4c-0.5,0.3-0.9,0.7-1.3,1.1
			c-0.2-0.5-0.6-0.8-1.1-1.1c-0.5-0.3-1-0.4-1.5-0.4c-1.1,0-2.2,0.6-2.8,1.5v-1.3h-2.3v9.2h2.5v-4.5c-0.1-0.6-0.1-1.3,0-1.9
			c0.1-0.4,0.3-0.7,0.6-0.9c0.3-0.2,0.7-0.3,1-0.3c0.2-0.1,0.5-0.1,0.7,0c0.2,0.1,0.4,0.3,0.4,0.6c0,0.6,0,1.2,0,1.7v5.1h2.5v-4.4
			c-0.1-0.6-0.1-1.3,0-1.9c0.1-0.4,0.3-0.7,0.7-0.9c0.3-0.2,0.6-0.3,1-0.3c0.4,0,0.8,0.2,1,0.5c0.1,0.6,0.1,1.2,0,1.8v5.3h2.5v-5.7
			c0-0.7-0.1-1.3-0.3-1.9C313.9,185.1,313.8,184.7,313.6,184.3z"/>
		<path class="st12" d="M323.5,183.9c-0.8,0-1.7,0.2-2.4,0.6c-0.7,0.4-1.4,1-1.7,1.7c-0.4,0.7-0.6,1.5-0.6,2.3
			c0,0.9,0.2,1.9,0.6,2.7c0.4,0.7,1,1.3,1.8,1.7c0.7,0.4,1.6,0.6,2.4,0.6c1.3,0,2.5-0.5,3.4-1.4c1.8-1.9,1.8-4.9,0-6.9
			C326,184.3,324.7,183.8,323.5,183.9z M325.1,190.8c-0.4,0.5-1,0.7-1.6,0.7c-0.6,0-1.2-0.2-1.6-0.7c-0.5-0.6-0.7-1.4-0.6-2.1
			c-0.1-0.7,0.2-1.5,0.6-2.1c0.4-0.5,1-0.8,1.6-0.7c0.6,0,1.2,0.2,1.6,0.7c0.5,0.6,0.7,1.3,0.6,2.1
			C325.8,189.4,325.6,190.2,325.1,190.8z"/>
		<path class="st12" d="M337.1,183.9c-1,0-2,0.5-2.7,1.3v-4.6H332v12.7h2.3v-1.3c0.3,0.5,0.8,0.9,1.3,1.2c0.5,0.2,1,0.4,1.5,0.4
			c1.1,0.1,2.2-0.4,2.8-1.3c0.8-1,1.2-2.3,1.1-3.6c0.1-1.3-0.3-2.5-1.1-3.5C339.2,184.3,338.2,183.8,337.1,183.9z M337.9,190.9
			c-0.3,0.5-0.8,0.7-1.4,0.7c-0.7,0-1.3-0.4-1.7-1c-0.3-0.7-0.5-1.4-0.4-2.1c0-0.8,0.2-1.5,0.7-2.1c0.4-0.4,0.9-0.7,1.4-0.7
			c0.6,0,1.1,0.3,1.5,0.7c0.4,0.6,0.6,1.4,0.6,2.2C338.7,189.5,338.4,190.2,337.9,190.9z"/>
		<rect x="344.8" y="184.1" class="st12" width="2.4" height="9.2"/>
		<rect x="344.8" y="180.6" class="st12" width="2.4" height="2.3"/>
		<rect x="351.7" y="180.6" class="st12" width="2.5" height="12.7"/>
		<path class="st12" d="M365.4,185.2c-0.8-0.9-2-1.4-3.2-1.3c-1.2,0-2.3,0.4-3,1.3c-0.9,1-1.3,2.3-1.2,3.6c0,1.1,0.3,2.2,0.9,3.2
			c0.8,1.1,2.2,1.7,3.6,1.6c0.9,0,1.8-0.2,2.5-0.7c0.7-0.5,1.2-1.2,1.4-2l-2.4-0.4c-0.1,0.4-0.3,0.7-0.6,1c-0.3,0.2-0.6,0.3-1,0.3
			c-0.5,0-1-0.2-1.4-0.6c-0.4-0.5-0.6-1.1-0.6-1.7h6.1C366.6,187.9,366.2,186.4,365.4,185.2z M360.5,187.9c0-0.6,0.1-1.1,0.5-1.6
			c0.7-0.7,1.8-0.8,2.5-0.1c0,0,0.1,0.1,0.1,0.1c0.4,0.5,0.6,1,0.5,1.6L360.5,187.9z"/>
		<path class="st12" d="M391,184.3c-0.5-0.3-1.1-0.5-1.7-0.4c-0.5,0-1,0.1-1.5,0.4c-0.5,0.3-0.9,0.7-1.3,1.1
			c-0.2-0.5-0.6-0.8-1.1-1.1c-0.5-0.3-1-0.4-1.5-0.4c-1.1,0-2.2,0.6-2.8,1.5v-1.3h-2.3v9.2h2.4v-4.5c0-0.6,0-1.3,0.2-1.9
			c0.1-0.4,0.3-0.7,0.6-0.9c0.3-0.2,0.7-0.3,1-0.3c0.2-0.1,0.5-0.1,0.7,0c0.2,0.1,0.4,0.3,0.4,0.6c0,0.6,0,1.2,0,1.7v5.1h2.5v-4.4
			c-0.1-0.6-0.1-1.3,0-1.9c0.1-0.4,0.3-0.7,0.6-0.9c0.3-0.2,0.6-0.3,1-0.3c0.4,0,0.8,0.1,1.1,0.5c0.2,0.6,0.3,1.2,0.2,1.8v5.3h2.5
			v-5.7c0-0.7-0.1-1.3-0.3-1.9C391.7,185,391.4,184.6,391,184.3z"/>
		<path class="st12" d="M400.9,183.9c-0.9,0-1.7,0.2-2.5,0.6c-0.7,0.4-1.3,1-1.7,1.7c-0.4,0.7-0.6,1.5-0.6,2.3
			c0,0.9,0.2,1.9,0.6,2.7c0.4,0.7,1,1.3,1.7,1.7c0.7,0.4,1.6,0.6,2.4,0.6c1.3,0,2.5-0.5,3.4-1.4c1.8-1.9,1.8-4.9,0-6.9
			C403.4,184.3,402.2,183.8,400.9,183.9z M402.5,190.8c-0.9,0.9-2.3,0.9-3.1,0c0,0,0,0,0,0c-0.5-0.6-0.7-1.4-0.7-2.1
			c0-0.8,0.2-1.5,0.7-2.1c0.8-0.9,2.1-1,3-0.2c0.1,0.1,0.1,0.1,0.2,0.2c0.5,0.6,0.7,1.3,0.7,2.1C403.3,189.5,403,190.2,402.5,190.8z
			"/>
		<path class="st12" d="M417.2,184.9c-0.2-0.4-0.6-0.6-1-0.8c-0.5-0.2-1-0.3-1.5-0.3c-1.2,0-2.3,0.6-3,1.6v-1.4h-2.3v9.2h2.7v-4.1
			c-0.1-0.7-0.1-1.4,0-2.1c0.1-0.4,0.4-0.7,0.7-0.9c0.3-0.2,0.7-0.4,1.2-0.3c0.3,0,0.6,0.1,0.8,0.2c0.2,0.2,0.4,0.4,0.5,0.7
			c0.1,0.6,0.1,1.3,0,1.9v4.8h2.4v-6c0-0.5,0-1.1,0-1.6C417.6,185.4,417.5,185.2,417.2,184.9z"/>
		<path class="st12" d="M429,185.2c-0.8-0.9-2-1.4-3.2-1.3c-1.2,0-2.3,0.4-3,1.3c-0.8,1-1.3,2.3-1.2,3.6c0,1.1,0.3,2.2,0.9,3.2
			c1.6,1.7,4.1,2.1,6.1,0.9c0.7-0.5,1.2-1.2,1.5-2l-2.4-0.4c-0.1,0.4-0.3,0.7-0.6,1c-0.3,0.2-0.6,0.3-0.9,0.3
			c-0.5,0-1.1-0.2-1.4-0.6c-0.4-0.5-0.6-1.1-0.6-1.7h6.1C430.3,187.9,429.9,186.4,429,185.2z M424.2,187.9c0-0.6,0.1-1.2,0.5-1.6
			c0.3-0.4,0.8-0.6,1.3-0.6c0.5,0,0.9,0.2,1.3,0.5c0.4,0.5,0.6,1,0.6,1.6H424.2z"/>
		<path class="st12" d="M439.9,184.1l-2.2,6.5l-2.2-6.5h-2.6l3.3,9.2c-0.1,0.5-0.3,0.9-0.6,1.3c-0.3,0.4-0.8,0.6-1.3,0.5
			c-0.3,0-0.7,0-1,0v1.9c0.5,0,0.9,0,1.4,0c0.5,0.1,1,0.1,1.5,0c0.3-0.1,0.7-0.2,1-0.4c0.3-0.2,0.5-0.4,0.7-0.7
			c0.2-0.4,0.4-0.8,0.6-1.3l0.6-1.6l3.3-8.8L439.9,184.1z"/>
		<path class="st12" d="M411.9,104c16.9,0,30.5-13.7,30.5-30.6s-13.7-30.5-30.6-30.5c-16.8,0-30.5,13.7-30.5,30.5
			c0,16.8,13.6,30.5,30.4,30.5C411.8,104,411.8,104,411.9,104z M411.9,60.1c7.3,0,13.3,6,13.2,13.3s-6,13.3-13.3,13.2
			c-7.3,0-13.2-6-13.2-13.3C398.6,66.1,404.5,60.1,411.9,60.1C411.9,60.1,411.9,60.1,411.9,60.1z"/>
		<path class="st12" d="M352.3,42.9c-5,0-9.8,1.5-13.9,4.3c-4.1-2.8-8.9-4.3-13.9-4.3c-12.3-0.4-22.7,9.2-23.2,21.5V104H320V64.4
			c0.1-2.4,2.1-4.3,4.6-4.2c2.4-0.2,4.6,1.6,4.8,4c0,0.1,0,0.1,0,0.2l0,0V104h18.4V64.4l0,0c0.8-2.5,3.6-3.9,6.1-3.1
			c1.5,0.5,2.6,1.6,3.1,3.1V104h18.6V64.4C375,52,364.6,42.4,352.3,42.9z"/>
		<path class="st12" d="M411.9,174.5c16.9,0,30.6-13.7,30.6-30.6c0-16.9-13.7-30.6-30.6-30.6c-16.9,0-30.6,13.7-30.6,30.6
			c0,0,0,0.1,0,0.1C381.3,160.9,395,174.5,411.9,174.5C411.9,174.5,411.9,174.5,411.9,174.5z M411.9,130.6c7.3,0,13.3,6,13.2,13.3
			c0,7.3-6,13.3-13.3,13.2c-7.3,0-13.2-5.9-13.2-13.2c-0.1-7.3,5.8-13.3,13.1-13.4C411.7,130.6,411.8,130.6,411.9,130.6z"/>
		<path class="st12" d="M352.3,113.4c-5,0-9.8,1.5-13.9,4.3c-4.1-2.8-8.9-4.3-13.9-4.3c-12.3-0.4-22.7,9.2-23.2,21.5v39.6H320v-39.6
			c0.1-2.4,2.1-4.3,4.6-4.2c2.4-0.2,4.6,1.6,4.8,4c0,0.1,0,0.1,0,0.2l0,0v39.6h18.4v-39.6l0,0c0.8-2.5,3.6-3.9,6.1-3.1
			c1.5,0.5,2.6,1.6,3.1,3.1v39.6h18.6v-39.6C375,122.6,364.6,112.9,352.3,113.4z"/>
	</g>
</g>
</svg>
