{
  "message": "Desmond",
  "mainSlider": [
    {
      "image": "images/slider-main-img1.jpg",
      "content": "Bà Nà Hill - Phiêu bồng chốn tiên cảnh"
    },
    {
      "image": "images/slider-main-img2.jpg",
      "content": "Kinh nghiệm du lịch Đà Lạt giá rẻ từ A – Z"
    },
    {
      "image": "images/slider-main-img3.jpg",
      "content":
        "Kinh nghiệm du lịch Nhật Bản tự túc chi tiết đầy đủ nhất cho gà mờ"
    },
    {
      "image": "images/slider-main-img4.jpg",
      "content": "Kinh nghiệm du lịch Hà Giang tự túc chi tiết nhất"
    },
    {
      "image": "images/slider-main-img5.jpg",
      "content": "Travel Blogger - Khi người trẻ đam mê kể chuyện du lịch"
    }
  ],
  "mainPosts": [
    {
      "image":
        "https://media.foody.vn/images/blogs/s150x150/foody-ch%c3%b9a-t%c3%a2y-%e1%ba%a5n-636477475705791176.jpg",
      "content": "Đi trốn ngày lễ ở khu resort siêu sang giá chỉ từ 1tr1/người",
      "time": "15 phút trước",
      "comments": "2"
    },
    {
      "image":
        "https://media.foody.vn/images/blogs/s150x150/foody-thumb%20blog%20tr%e1%bb%a9ng-636477461567429293.jpg",
      "content": "Kinh nghiệm du lịch Đà Lạt giá rẻ từ A – Z",
      "time": "30 phút trước",
      "comments": "250"
    },
    {
      "image":
        "https://media.foody.vn/images/blogs/s150x150/foody-b%c3%a1nh%20tr%c3%a1ng%20k%e1%ba%b9p%20d%c3%ac%20hoa-636477448261986296.jpg",
      "content":
        "Kinh nghiệm du lịch Nhật Bản tự túc chi tiết đầy đủ nhất cho gà mờ",
      "time": "1 giờ trước",
      "comments": "1589"
    },
    {
      "image":
        "https://media.foody.vn/images/blogs/s150x150/foody-1111111-636477396834082372.jpg",
      "content": "Kinh nghiệm du lịch Hà Giang tự túc chi tiết nhất",
      "time": "1 giờ trước",
      "comments": "450"
    },
    {
      "image":
        "https://media.foody.vn/images/blogs/s150x150/foody-hahafgba-636477262047892542.jpg",
      "content": "Travel Blogger - Khi người trẻ đam mê kể chuyện du lịch",
      "time": "1 giờ trước",
      "comments": "255"
    }
  ],
  "collectivePosts": [
    {
      "image":
        "https://media.foody.vn/res/g26/255544/prof/s640x400/foody-mobile-13631523_80169174993-291-636039302772669764.jpg",
      "content":
        "5 địa điểm du lịch độc lạ gần Sài Gòn ít người biết cho 2 ngày cuối tuần",
      "time": "15 phút trước",
      "comments": "2"
    },
    {
      "image":
        "https://media.foody.vn/res/g9/85411/prof/s640x400/foody-mobile-ice-jpg-871-636135021657797762.jpg",
      "content":
        "2N1Đ cùng bang phái bao trọn siêu xe vi vu 10 điểm Vũng Tàu chỉ 600K/người",
      "time": "30 phút trước",
      "comments": "250"
    },
    {
      "image":
        "https://media.foody.vn/res/g26/256335/prof/s640x400/foody-mobile-untitled-8-jpg-390-636143871176071590.jpg",
      "content":
        "Lịm tim vì 7 homestay áp mái ở Đà Lạt đẹp như bước ra từ phim Hàn",
      "time": "1 giờ trước",
      "comments": "1589"
    },
    {
      "image":
        "https://media.foody.vn/res/g18/170203/prof/s640x400/foody-mobile-12219504_52908899392-958-635839617375118246.jpg",
      "content":
        "Thuộc lòng bản đồ 17 địa điểm ăn chơi Cần Thơ siêu tiết kiệm chỉ trong 3N2Đ",
      "time": "1 giờ trước",
      "comments": "450"
    },
    {
      "image":
        "https://media.foody.vn/res/g16/154114/prof/s640x400/foody-mobile-the-march-coffee-jpg-288-635777807954383266.jpg",
      "content":
        "Tổng hợp 3 homestay Le Bleu Hà Nội dành cho những tín đồ vintage",
      "time": "1 giờ trước",
      "comments": "255"
    },
    {
      "image":
        "https://media.foody.vn/res/g16/157184/prof/s640x400/foody-mobile-a1-jpg-792-635774935158543617.jpg",
      "content":
        "Những nơi nhất định phải đi trong suốt 5 mùa đẹp nhất Việt Nam",
      "time": "1 giờ trước",
      "comments": "255"
    }
  ],

  "intendLocation": [
    {
      "img":
        "https://media.foody.vn/res/g68/673543/s180x180/foody-tra-sua-r-b-tea-su-van-hanh-722-636543030535497297.jpg",
      "title": "Thác Yang Bay - Du Lịch Sinh Thái",
      "type": "Nhà hàng, Thăm quan & chụp ảnh",
      "price": " 100.000 đồng",
      "note":
        "Trước khi đi Nha Trang nhất định phảo gom góp cho đủ tiền để đi chơi Vinperl nha",
      "care": "23453",
      "score": "8.3",
      "color": "green",
      "time": "9:00",
      "icon": "icon2-luggage",
      "duration": "2 giờ 30 phút"
    },
    {
      "img":
        "https://media.tripnow.vn/res/g5/42888/t180x180/foody-hanuri-quan-an-han-quoc-961-636332939192575911.jpg",
      "title": "Hanuri - Quán Ăn Hàn Quốc - Sư Vạn Hạnh",
      "type": "Quán ăn",
      "price": "...",
      "note": "Hanuri chuyên phục vụ các món ăn Hàn Quốc thơm ngon",
      "care": "234",
      "score": "6.9",
      "color": "green",
      "time": "11:00",
      "icon": "icon2-cocktail",
      "duration": "30 phút"
    },
    {
      "img":
        "https://media.tripnow.vn/res/g29/282050/t214x214/foody-the-laban-cafe-homestay-757-636133493116625563.jpg",
      "title": "The Laban - Cafe & Homestay",
      "type": "Café/Dessert, Homestay",
      "price": "...",
      "note":
        "Nằm ngay Bùi Thị Xuân q1. 2 tầng là cafe và 5 tầng trên là hostel hay giống kiểu Homestat đẹp vô đối",
      "care": "3523",
      "score": "8.0",
      "color": "green",
      "time": "11:30",
      "icon": "icon2-cocktail",
      "duration": "1 giờ"
    },
    {
      "img":
        "https://media.tripnow.vn/res/g1/955/t285x285/foody-khu-nghi-duong-villa-h2o-hoc-mon-793-635663279814698879.jpg",
      "title": "Villa H2O - Sinh Thái & Nghỉ Dưỡng",
      "type": "Khu nghỉ dưỡng, Du lịch sinh thái",
      "price": "...",
      "note": "...",
      "care": "4355",
      "score": "7.3",
      "color": "green",
      "time": "12:30",
      "icon": "icon2-sunbed",
      "duration": "2 giờ 30 phút"
    },
    {
      "img":
        "https://media.tripnow.vn/res/g1/955/t285x285/foody-khu-nghi-duong-villa-h2o-hoc-mon-793-635663279814698879.jpg",
      "title": "La Maison De Campagne Resort",
      "type": "Khu nghỉ dưỡng",
      "price": "...",
      "note": "...",
      "care": "5466",
      "score": "8.2",
      "color": "green",
      "time": "14:30",
      "icon": "icon2-sunbed",
      "duration": "2 giờ 30 phút"
    }
  ]
}
